{
  "project_info": {
    "project_number": "893582888186",
    "firebase_url": "https://zireh-aadd2.firebaseio.com",
    "project_id": "zireh-aadd2",
    "storage_bucket": "zireh-aadd2.appspot.com"
  },
  "client": [
    {
      "client_info": {
        "mobilesdk_app_id": "1:893582888186:android:33c666e460449c5d580d43",
        "android_client_info": {
          "package_name": "com.notif.app"
        }
      },
      "oauth_client": [
        {
          "client_id": "893582888186-csj0ktk5v9iirencshn0u00tib70pmej.apps.googleusercontent.com",
          "client_type": 1,
          "android_info": {
            "package_name": "com.notif.app",
            "certificate_hash": "9e89b11112d8a746f7a229835eeaa687123b075d"
          }
        },
        {
          "client_id": "893582888186-q5meemiqahjpjd55shqv1f6f4haelvmg.apps.googleusercontent.com",
          "client_type": 3
        }
      ],
      "api_key": [
        {
          "current_key": "AIzaSyA4Sfz93XS1c66_oyy0gZMmZ7nxVatT3D0"
        }
      ],
      "services": {
        "appinvite_service": {
          "other_platform_oauth_client": [
            {
              "client_id": "893582888186-q5meemiqahjpjd55shqv1f6f4haelvmg.apps.googleusercontent.com",
              "client_type": 3
            }
          ]
        }
      }
    },
    {
      "client_info": {
        "mobilesdk_app_id": "1:893582888186:android:af4b88a25ead98ce580d43",
        "android_client_info": {
          "package_name": "com.notif.test"
        }
      },
      "oauth_client": [
        {
          "client_id": "893582888186-fvbissf63rhttocbesvt7122rmjckle8.apps.googleusercontent.com",
          "client_type": 1,
          "android_info": {
            "package_name": "com.notif.test",
            "certificate_hash": "9e89b11112d8a746f7a229835eeaa687123b075d"
          }
        },
        {
          "client_id": "893582888186-q5meemiqahjpjd55shqv1f6f4haelvmg.apps.googleusercontent.com",
          "client_type": 3
        }
      ],
      "api_key": [
        {
          "current_key": "AIzaSyA4Sfz93XS1c66_oyy0gZMmZ7nxVatT3D0"
        }
      ],
      "services": {
        "appinvite_service": {
          "other_platform_oauth_client": [
            {
              "client_id": "893582888186-q5meemiqahjpjd55shqv1f6f4haelvmg.apps.googleusercontent.com",
              "client_type": 3
            }
          ]
        }
      }
    }
  ],
  "configuration_version": "1"
}